{
  "jokes": [
    {
      "id": 1,
      "jokes": [
        "Kenapa cicak mutusin ekor tiba-tiba?",
        "Kan bisa dibicarain baik-baik"
      ]
    },
    {
      "id": 2,
      "jokes": [
        "Siapa artis hollywood yang bikin baper?",
        "Jack Sparrow. Sparrow jiwaku pergi~~"
      ]
    },
    {
      "id": 3,
      "jokes": [
        "Kalau kamu cari cowok yang ganteng, aku mundur.",
        "Kalau kamu cari cowok yang sholeh, kaya, dan pintar, aku pulang aja sekalian"
      ]
    }
  ],
  "promotions": [
    {
      "id": 1,
      "url": "https://facebook.com",
      "preview_image": "https://blog.vantagecircle.com/content/images/2020/08/Employee-Promotion--The-Types--Benefits---Whom-to-Promote.jpg"
    },
    {
      "id": 2,
      "url": "https://instagram.com",
      "preview_image": "https://www.synergita.com/blog/wp-content/uploads/2019/09/employee-promotion-synergita-626x400.jpg"
    },
    {
      "id": 3,
      "url": "https://facebook.com",
      "preview_image": "https://wisedime.com/wp-content/uploads/2019/08/Promotion.jpg"
    }
  ],
  "weather": [
    {
      "location": "DKI Jakarta",
      "short_note": "Diperkirakan macet",
      "suhu": "30°C",
      "kelembaban": "90%",
      "angin": "1km/h",
      "presipitasi": "5%"
    },
    {
      "location": "Semarang",
      "short_note": "Diperkirakan hujan",
      "suhu": "28°C",
      "kelembaban": "50%",
      "angin": "3km/h",
      "presipitasi": "8%"
    },
    {
      "location": "Pati",
      "short_note": "Sebagian besar berawan",
      "suhu": "26°C",
      "kelembaban": "90%",
      "angin": "5km/h",
      "presipitasi": "11%"
    },
    {
      "location": "Yogyakarta",
      "short_note": "Diperkirakan hujan",
      "suhu": "25°C",
      "kelembaban": "95%",
      "angin": "5km/h",
      "presipitasi": "11%"
    }
  ]
}
